[gd_scene load_steps=3 format=2]

[ext_resource path="res://icon.png" type="Texture" id=1]
[ext_resource path="res://Scenes/Splash.gd" type="Script" id=2]

[node name="Control" type="Control"]
anchor_right = 1.0
anchor_bottom = 1.0
script = ExtResource( 2 )

[node name="Logo" type="TextureRect" parent="."]
anchor_left = 0.5
anchor_top = 0.5
anchor_right = 0.5
anchor_bottom = 0.5
margin_left = -32.0
margin_top = -32.0
margin_right = 40.0
margin_bottom = 40.0
texture = ExtResource( 1 )
